…
Problem 2.3
-----------

### Add::residuals and add::predictions to plot residuals against fitted values.

``` r
# Using the add::residuals and add:predictions to observe the output for my linear model.

modelr::add_residuals(birthweight_clean, bw_linear_one)
```

    ## # A tibble: 4,342 x 9
    ##      bwt momage mrace smoken babysex bhead blength gaweeks    resid
    ##    <int>  <int> <int>  <dbl>   <int> <int>   <int>   <dbl>    <dbl>
    ##  1  3629     36     1      0       2    34      51    39.9  182.   
    ##  2  3062     25     2      0       1    34      48    25.9  -98.2  
    ##  3  3345     29     1      1       2    36      50    39.9   -0.419
    ##  4  3062     18     1     10       1    34      52    40    -59.6  
    ##  5  3374     20     1      1       2    34      52    41.6  148.   
    ##  6  3374     23     1      0       1    33      52    40.7   99.6  
    ##  7  2523     29     2      0       2    33      46    40.3 -690.   
    ##  8  2778     19     1      0       2    33      49    37.4 -443.   
    ##  9  3515     13     1      0       1    36      52    40.3  373.   
    ## 10  3459     19     2      4       1    33      50    40.7  413.   
    ## # ... with 4,332 more rows

``` r
modelr::add_predictions(birthweight_clean, bw_linear_one)
```

    ## # A tibble: 4,342 x 9
    ##      bwt momage mrace smoken babysex bhead blength gaweeks  pred
    ##    <int>  <int> <int>  <dbl>   <int> <int>   <int>   <dbl> <dbl>
    ##  1  3629     36     1      0       2    34      51    39.9 3447.
    ##  2  3062     25     2      0       1    34      48    25.9 3160.
    ##  3  3345     29     1      1       2    36      50    39.9 3345.
    ##  4  3062     18     1     10       1    34      52    40   3122.
    ##  5  3374     20     1      1       2    34      52    41.6 3226.
    ##  6  3374     23     1      0       1    33      52    40.7 3274.
    ##  7  2523     29     2      0       2    33      46    40.3 3213.
    ##  8  2778     19     1      0       2    33      49    37.4 3221.
    ##  9  3515     13     1      0       1    36      52    40.3 3142.
    ## 10  3459     19     2      4       1    33      50    40.7 3046.
    ## # ... with 4,332 more rows
…
